Raport i analiza - Konstytucja RP
…
# Podgląd
head(tokeny_z_kategoria)

#Kontrola negacji

wyrazenia_z_negacja <- tokeny_z_kategoria %>%
  filter(
    negacja_przed == TRUE,
    kategoria_pierwotna %in% c("liberalny", "restrykcyjny")
  ) %>%
  select(id, pozycja, wyrazenie, word, kategoria_pierwotna, kategoria)

print(wyrazenia_z_negacja)

## # A tibble: 54 × 6
##    id        pozycja wyrazenie word  kategoria_pierwotna kategoria   
##    <chr>       <int> <chr>     <chr> <chr>               <chr>       
##  1 Art. 105.       3 nie moze  moze  liberalny           restrykcyjny
##  2 Art. 105.      39 nie moze  moze  liberalny           restrykcyjny
##  3 Art. 105.      81 nie moze  moze  liberalny           restrykcyjny
##  4 Art. 107.       6 nie moze  moze  liberalny           restrykcyjny
##  5 Art. 116.      27 nie moze  moze  liberalny           restrykcyjny
##  6 Art. 122.      34 nie moze  moze  liberalny           restrykcyjny
##  7 Art. 131.       3 nie moze  moze  liberalny           restrykcyjny
##  8 Art. 131.      97 nie moze  moze  liberalny           restrykcyjny
##  9 Art. 131.     110 nie moze  moze  liberalny           restrykcyjny
## 10 Art. 132.       3 nie moze  moze  liberalny           restrykcyjny
## # ℹ 44 more rows
…
